"d0","d1","time"
0,2,0 s
0,2,1 s
0,2,2 s
0,2,3 s
0,2,4 s
1,1,5 s
2,0,6 s
2,0,7 s
2,0,8 s
2,0,9 s
2,0,10 s
1,1,11 s
0,2,12 s
0,2,13 s
0,2,14 s
0,2,15 s
0,2,16 s
1,1,17 s
2,0,18 s
2,0,19 s
2,0,20 s
2,0,21 s
2,0,22 s
1,1,23 s
0,2,24 s
0,2,25 s
0,2,26 s
0,2,27 s
0,2,28 s
1,1,29 s
2,0,30 s
2,0,31 s
2,0,32 s
2,0,33 s
2,0,34 s
