$date today $end
$timescale 1 s $end
$scope module a $end
$var real 8 0 signal_0 $end
$upscope $end
$enddefinitions $end
#0
r0.1477663806848586 0
#1
r0.1937304328591724 0
r0.2250232045997709 0
r0.2398327217793522 0
r0.2408276920655461 0
r0.2338931872928765 0
r0.2262669500129093 0
r0.2245535282035142 0
r0.2330923457944123 0
r0.2530424866393103 0
r0.2823527541619025 0
#2
r0.3165602346340044 0
r0.3501598581131443 0
r0.3781593328080343 0
r0.3974071293504131 0
r0.407358915067738 0
r0.4101070572653586 0
r0.4096959258792942 0
r0.4109314609757479 0
r0.4180198704396986 0
r0.4334064379761223 0
#3
r0.4571238410709545 0
r0.4868177622142101 0
r0.5184338587207081 0
r0.5473726810524889 0
r0.5697942279053744 0
r0.5837139755181755 0
r0.5895877635890151 0
r0.5902194397896346 0
r0.5900071440980914 0
r0.5937239992315526 0
#4
r0.6051593337452442 0
r0.6259922970785956 0
r0.6552172163674278 0
r0.6893009447437987 0
r0.7230610721427433 0
r0.7510587889693836 0
r0.7691521158295662 0
r0.7757941040128835 0
r0.772705314977198 0
r0.7646928674457898 0
#5
r0.7585969422647637 0
r0.7615696441851608 0
r0.7790748528604158 0
r0.8130936929979814 0
r0.861001222792151 0
r0.9154459774202959 0
r0.9653432524922604 0
r0.9978354813288153 0
r1.000839022175045 0
r0.9656423661993159 0
#6
r0.8889848524378938 0
r0.7741389500644784 0
r0.630724253691953 0
r0.4732524533787366 0
r0.3186786211209862 0
r0.1834523323914292 0
r0.08067245154289743 0
r0.01792652324292594 0
r-0.003755112695060087 0
r0.0103554821697466 0
#7
r0.05014365055430655 0
r0.1029660611763127 0
r0.1562962571979175 0
r0.2001284479748062 0
r0.2286446642836635 0
r0.240836952295854 0
r0.2400249993850219 0
r0.2324612471769338 0
r0.2254118034638977 0
r0.225198587148292 0
#8
r0.2356670554516249 0
r0.2574141059379481 0
r0.2879074848036141 0
r0.3224029810552358 0
r0.3553742046510526 0
r0.3820573204569349 0
r0.3997045000610317 0
r0.4082335291268288 0
r0.4101301380288217 0
r0.4096592852841427 0
#9
r0.4116203594315345 0
r0.4199940717686471 0
r0.4368483193436429 0
r0.4617933800239753 0
r0.4921250249692635 0
r0.5236079792492118 0
r0.5516805277082046 0
r0.572748717346957 0
r0.5852147495337956 0
r0.5899549779760186 0
#10
r0.5901100403709719 0
r0.5902347613650729 0
r0.5950301466631776 0
r0.6079978781684788 0
r0.6303872110893345 0
r0.6607356053873302 0
r0.6951536135992791 0
r0.7283089269361863 0
r0.7548738956800678 0
r0.7710650590630371 0
#11
r0.7758592716442436 0
r0.771533505036162 0
r0.7633323051373573 0
r0.7582819058619172 0
r0.7633910773526179 0
r0.7836506673907058 0
r0.8203216711977449 0
r0.8699625080342221 0
r0.9244949517744303 0
r0.9723772819211616 0
#12
r1.000695352055086 0
r0.9977580325259781 0
r0.9556470311277492 0
r0.8721570317938194 0
r0.7516768668735245 0
r0.6047823720064371 0
r0.4465880320517401 0
r0.2941750915657534 0
r0.1636167870424529 0
r0.06721024737037028 0
#13
r0.01147898726390977 0
r-0.003659732355918485 0
r0.01557683159163005 0
r0.05847084739389443 0
r0.1122131503088609 0
r0.1645476755409467 0
r0.2060820684951774 0
r0.2317943965337432 0
r0.2414666305244399 0
r0.2390290790248756 0
#14
r0.2310461456437959 0
r0.2247558508487272 0
r0.2261533727536456 0
r0.2385680645739837 0
r0.2620382389133578 0
r0.2935771949154233 0
r0.3282007921694257 0
r0.3604059577694418 0
r0.3856934919701376 0
r0.4017379718906137 0
#15
r0.4089164046763625 0
r0.4100850252449305 0
r0.4096933602942112 0
r0.4124951185381326 0
r0.4222138912900882 0
r0.4405244573206052 0
r0.4666188546753838 0
r0.4974656148987042 0
r0.5286833761786652 0
r0.5557855928827231 0
#16
r0.5754541121417258 0
r0.5864917018520391 0
r0.5901891836992882 0
r0.5899994234074892 0
r0.5905972720973099 0
r0.5965726985818495 0
r0.6111092473954837 0
r0.6350129327745344 0
r0.6663725070305695 0
r0.7009706012800475 0
#17
r0.733366813760123 0
r0.7583891670618759 0
r0.772647940921149 0
r0.7756595223982293 0
r0.7702478496463521 0
r0.7620608016166044 0
r0.7582588243948369 0
r0.7656496353991129 0
r0.788701581275695 0
r0.8279273148174626 0
#18
r0.8790703148626546 0
r0.9333592068662455 0
r0.9788553502232384 0
r1.002662698477059 0
r0.9935560581508627 0
r0.9444662697379206 0
r0.854268818728414 0
r0.7284572795967932 0
r0.5785163758860123 0
r0.4200894432714248 0
#19
r0.2702983542076635 0
r0.1447604125122335 0
r0.0549136058615104 0
r0.006193549624862574 0
r-0.002581899434386067 0
r0.02147191819491382 0
r0.06710338953259 0
r0.1214136264688315 0
r0.1724833932958293 0
r0.2115770045056295 0
#20
r0.2344808538611961 0
r0.2417477541446846 0
r0.2378748451304551 0
r0.2296819032061157 0
r0.2243236148059924 0
r0.2274274674082227 0
r0.2417888154308467 0
r0.2668952183635224 0
r0.2993353193003786 0
r0.3339278151248607 0
#21
r0.3652369457130087 0
r0.3890619057381657 0
r0.403514884780018 0
r0.4094255874240769 0
r0.4099950876534218 0
r0.4098201829979918 0
r0.4135703212892904 0
r0.424682533802996 0
r0.4444259559114127 0
r0.471581902834825 0
#22
r0.5028169442450916 0
r0.5336396360084719 0
r0.5596754409728626 0
r0.5779095652894912 0
r0.5875559797484754 0
r0.5903105696385965 0
r0.5899112640316403 0
r0.5911151556769684 0
r0.5983629453821472 0
r0.6144919161860266 0
#23
r0.6398549506544423 0
r0.6721039027766635 0
r0.7067247278986076 0
r0.7382120138765088 0
r0.7615932344658535 0
r0.7739049744570927 0
r0.7752148918806723 0
r0.7688800859815175 0
r0.7609140466634484 0
r0.7585576721851632 0
#24
r0.7683602951887174 0
r0.7942210377697153 0
r0.8358805810924776 0
r0.8882745903439193 0
r0.9419771859376632 0
r0.9847163336126081 0
r1.003689721696608 0
r0.9882096645730507 0
r0.9321076949495612 0
r0.8353595791869324 0
#25
r0.7045456859173351 0
r0.5520069706173713 0
r0.3938385606815427 0
r0.2471171717177349 0
r0.1269272691813427 0
r0.04379531653261776 0
r0.002051414412767835 0
r-0.0005661853454635998 0
r0.02798089176604917 0
r0.07597893261578544 0
#26
r0.130514921677917 0
r0.1800698065713955 0
r0.2166029530061454 0
r0.236715920310562 0
r0.2417084860657031 0
r0.236597743651701 0
r0.2284014795626267 0
r0.2241373787232381 0
r0.229027702077964 0
r0.2453202293157264 0
#27
r0.2719637197466747 0
r0.3051548724377249 0
r0.3395590478079028 0
r0.3698508216111359 0
r0.392158882463523 0
r0.405044650326798 0
r0.4097804512321964 0
r0.4098839430603531 0
r0.4100609190035472 0
r0.414858833399273 0
#28
r0.4274011252993235 0
r0.4485420582756107 0
r0.4766630328580823 0
r0.508156337250711 0
r0.5384573228091922 0
r0.5633394112765564 0
r0.5801163128334917 0
r0.5884205422577177 0
r0.5903403514711115 0
r0.5898691717354954 0
#29
r0.5918077198735396 0
r0.6004101913692514 0
r0.6181420852902405 0
r0.6448968184350189 0
r0.6779047406754022 0
r0.7123890246097989 0
r0.742823285604794 0
r0.7644771498376502 0
r0.7748431364667322 0
r0.7745477853606271 0
#30
r0.7674632357857516 0
r0.7599274652056359 0
r0.7592065041891253 0
r0.7715347636175717 0
r0.8001985238832626 0
r0.8441476706130532 0
r0.8975226330588352 0
r0.9502865099638301 0
r0.9899004626534221 0
r1.003732038407599 0
#31
r0.981700319195004 0
r0.9185843849745172 0
r0.8154736305805942 0
r0.6800110219323485 0
r0.5253360842015189 0
r0.3679160136848567 0
r0.224696851243603 0
r0.1101564567142946 0
r0.03386270393178104 0
r-0.000971106634586475 0
#32
r0.002339439307553316 0
r0.03504256728294297 0
r0.08503597296258261 0
r0.1394671298764378 0
r0.1872770740199433 0
r0.2211535648512459 0
r0.2385147403681063 0
r0.2413788946059395 0
r0.2352334705702607 0
r0.2272365377071872 0
#33
r0.2242170495742062 0
r0.2309581438629734 0
r0.2491508129908667 0
r0.2772209517745057 0
r0.3110086694309226 0
r0.3450705314707523 0
r0.3742331791139258 0
r0.3949830170312314 0
r0.4063386610377854 0
r0.4100015326130524 0
#34
r0.409775264682079 0
r0.4104356984064556 0
r0.41637170394156 0
r0.4303687089343387 0
r0.4528602378440921 0
r0.4818417842147124 0
r0.5134612159661165 0
r0.5431181383482193 0
r0.5667687083427169 0
r0.582077668944722 0
#35
r0.5891000600450372 0
r0.5903006022011729 0
r0.5898964967312271 0
r0.5926929358177023 0
r0.6027216648357623 0
r0.6220536942783489 0
r0.6501202714845397 0
r0.6837491284652654 0
r0.7179369545515196 0
r0.7471810543860206 0
#36
r0.7670344912218183 0
r0.7754721539161756 0
r0.7736828395706452 0
r0.7660313688097997 0
r0.759135935431269 0
r0.7602311966857069 0
r0.7751813075681715 0
r0.8066195386858107 0
r0.8526911527134314 0
r0.906759358092913 0
#37
r0.958224331124515 0
r0.9943496901100928 0
r1.002748982418007 0
r0.9740145575322117 0
r0.9039148730942094 0
r0.7946600516755675 0
r0.6549253279002735 0
r0.4985864563996862 0
r0.342400784172882 0
r0.2030989315087145 0
#38
r0.09448195426083583 0
r0.0251176500534769 0
r-0.002902399978948929 0
r0.006083923589630679 0
r0.04259479614921918 0
r0.09421419030423953 0
r0.1482232500598971 0
r0.1940792146401703 0
r0.2252263862069728 0
r0.2398955288381715 0
#39
r0.2407906850694551 0
r0.2338176933190833 0
r0.2262172215582294 0
r0.22458004075657 0
r0.2332201048185518 0
r0.2532667823841375 0
r0.2826428561949982 0
r0.316869546203193 0
r0.3504395333433514 0
r0.3783716517299631 0
#40
r0.3975351722617855 0
r0.4074101844210549 0
r0.4101103568904356 0
r0.4096925879791104 0
r0.4109634557265945 0
r0.4181180808804671 0
r0.4335822577457453 0
r0.4573663035342711 0
r0.4870968957401084 0
r0.5187092852838514 0
#41
r0.5476050731873917 0
r0.5699564774429241 0
r0.583799004254687 0
r0.5896108011681782 0
r0.5902140750931386 0
r0.5900161374274244 0
r0.5937872827263239 0
r0.6053024441451165 0
r0.6262184525213295 0
r0.6555053587930628 0
#42
r0.6896105352271029 0
r0.7233426327538889 0
r0.7512675920223396 0
r0.7692614499585051 0
r0.7758044689285103 0
r0.7726467652966514 0
r0.7646193543324395 0
r0.7585735057689668 0
r0.7616551985955881 0
r0.7793046043918317 0
#43
r0.8134655876686673 0
r0.8614701165524663 0
r0.9159275812773552 0
r0.9657276942812911 0
r0.9980080531964343 0
r1.000703887665423 0
r0.9651441217101822 0
r0.8881231063308622 0
r0.7729724647425398 0
r0.6293633956975642 0
#44
r0.4718412229741375 0
r0.3173698129988907 0
r0.182380892048524 0
r0.07993249031122766 0
r0.01755664744472252 0
r-0.003775331005964408 0
r0.01061346941726138 0
r0.05057483825137687 0
r0.1034547782253182 0
r0.1567394073057224 0
#45
r0.2004541790527614 0
r0.22882277524224 0
r0.2408793632261816 0
r0.2399769246848265 0
r0.2323857773077761 0
r0.2253719485195558 0
r0.2252411755261156 0
r0.2358121717163397 0
r0.2576522024158535 0
r0.2882043151563152 0
#46
r0.3227105772663307 0
r0.3556447179114703 0
r0.3822559952234661 0
r0.3998184547197959 0
r0.4082742428356436 0
r0.4101292574318266 0
r0.4096591194948414 0
r0.4116617800410605 0
r0.4201051421189971 0
r0.4370367039853674 0
#47
r0.4620445182123961 0
r0.4924064802348678 0
r0.5238787157314313 0
r0.5519025475474659 0
r0.5728978645427216 0
r0.5852877075678603 0
r0.5899705035880863 0
r0.5901040203757266 0
r0.5902503505444407 0
r0.5951056036541614 0
#48
r0.6081554005035631 0
r0.6306258882116049 0
r0.6610305895131687 0
r0.6954620000886327 0
r0.7285810433151897 0
r0.7550671836071934 0
r0.7711568986988246 0
r0.775855182320724 0
r0.7714681716580808 0
r0.7632626023955219 0
#49
r0.7582731127218763 0
r0.7634992953015423 0
r0.7839056142113685 0
r0.8207142035417219 0
r0.8704403472104479 0
r0.924968321071692 0
r0.9727339042583693 0
r1.000822027918586 0
r0.9975643508439774 0
r0.9550860702057453 0
#50
r0.8712383731059851 0
r0.7504687911706976 0
r0.6034024000433142 0
r0.4451834975842512 0
r0.2928976185127863 0
r0.1625958862489063 0
r0.06653144285618209 0
r0.0111708825093364 0
r-0.003627001130572714 0
r0.01587187690603953 0
#51
r0.05891973252028102 0
r0.1127007603556716 0
r0.1649750505307548 0
r0.2063838941129729 0
r0.2319477949308854 0
r0.2414899602703274 0
r0.2389717628978921 0
r0.2309725194114345 0
r0.2247272182632934 0
r0.2262126114697362 0
#52
r0.2387302562728312 0
r0.2622891417254822 0
r0.2938793645012415 0
r0.3285052894202587 0
r0.3606663056383481 0
r0.3858781525617049 0
r0.401838172887522 0
r0.4089474801215222 0
r0.4100811894032772 0
r0.4096975491926271 0
#53
r0.4125467764576615 0
r0.4223380425640362 0
r0.440724984798218 0
r0.4668777294491057 0
r0.4977482040257174 0
r0.5289483225748003 0
r0.555996540812933 0
r0.575590060270066 0
r0.5865531312148593 0
r0.5901982353929678 0
#54
r0.5899939971398918 0
r0.5906205653781755 0
r0.5966609734691342 0
r0.6112811579780552 0
r0.6352634151738445 0
r0.6666730930628294 0
r0.7012763464302769 0
r0.7336282521487574 0
r0.7585662807390877 0
r0.772722439497857 0
#55
r0.7756419758378784 0
r0.7701773731198968 0
r0.7619967964713401 0
r0.7582663015567362 0
r0.7657813867742715 0
r0.7889814752009107 0
r0.8283389936637869 0
r0.8795545259547214 0
r0.9338211163501582 0
r0.9791808966709611 0
#56
r1.002740873241701 0
r0.9933024718793135 0
r0.9438428579900748 0
r0.8532952001738207 0
r0.7272109819174075 0
r0.5771215156523991 0
r0.4186959538136029 0
r0.2690559294000592 0
r0.1437924997014275 0
r0.0542967703113315 0
#57
r0.005946348329868961 0
r-0.002498482930726208 0
r0.02180089965675723 0
r0.06756666370466347 0
r0.1218972904693586 0
r0.1728931259824552 0
r0.2118542809023492 0
r0.2346100829921744 0
r0.2417534383548178 0
r0.2378101490211916 0
#58
r0.2296118902126435 0
r0.224307438897475 0
r0.2275037863041053 0
r0.2419676652284361 0
r0.2671578409700817 0
r0.2996414113121669 0
r0.3342278697848577 0
r0.3654862180112547 0
r0.3892323010392915 0
r0.4036017781452919 0
#59
r0.4094480161284498 0
r0.4099895395343301 0
r0.4098298677517921 0
r0.4136329399817199 0
r0.4248198775845202 0
r0.4446381038571441 0
r0.4718475115195629 0
r0.5030994700640024 0
r0.5338977398118941 0
r0.5598747086382602 0
#60
r0.5780323275023685 0
r0.5876065204352978 0
r0.5903142437985116 0
r0.5899076818947209 0
r0.5911472036964271 0
r0.59846458016005 0
r0.6146780711882966 0
r0.6401164170781822 0
r0.6724087916602615 0
r0.7070263999885499 0
#61
r0.7384616136233213 0
r0.7617536397007685 0
r0.7739624313834491 0
r0.7751850133878795 0
r0.7688061804129024 0
r0.7608576193598081 0
r0.7585829518501742 0
r0.7685162817275349 0
r0.7945254228547967 0
r0.836309714130078 0
#62
r0.8887624536597371 0
r0.942424358235872 0
r0.9850076100053531 0
r1.003716962860637 0
r0.9878950706185265 0
r0.9314223864125747 0
r0.8343332193099987 0
r0.7032647243246819 0
r0.5506015225685079 0
r0.3924604098024752 0
#63
r0.2459133339753762 0
r0.1260145352295154 0
r0.04324097347353019 0
r0.001863986145896998 0
r-0.0004345350860065784 0
r0.02834060770564353 0
r0.07645332310549846 0
r0.1309919347656351 0
r0.1804602256343301 0
r0.2168552463179836 0
#64
r0.2368217001413929 0
r0.2416980676163294 0
r0.236527549240255 0
r0.2283367867062855 0
r0.2241347715452788 0
r0.22912138513056 0
r0.2455151895217394 0
r0.2722368932787876 0
r0.3054634540095882 0
r0.339853366620829 0
#65
r0.3700882079057844 0
r0.3923148813442106 0
r0.4051187891296661 0
r0.4097952903493164 0
r0.409877933404376 0
r0.4100771902394014 0
r0.4149330427297762 0
r0.4275516631098734 0
r0.4487652084376843 0
r0.4769343175130461 0
#66
r0.5084376031107624 0
r0.5387075876751132 0
r0.5635264867120117 0
r0.5802260123204342 0
r0.5884609273046029 0
r0.5903397940778689 0
r0.5898686752776993 0
r0.5918495067152229 0
r0.6005256204886465 0
r0.6183422209678394 0
#67
r0.6451683485323111 0
r0.6782125840577876 0
r0.7126852092107036 0
r0.7430599694501945 0
r0.764620443384613 0
r0.774883996943561 0
r0.7745068217355442 0
r0.7673876766661849 0
r0.7598804741795557 0
r0.7592510098816048 0
#68
r0.771715509434324 0
r0.8005267341055087 0
r0.844592370362241 0
r0.898011296205095 0
r0.9507156340204024 0
r0.9901543566302469 0
r1.00370610241982 0
r0.9813238782436217 0
r0.9178380223521476 0
r0.8143970044257557 0
#69
r0.6786991269828436 0
r0.5239244020027322 0
r0.36655741794403 0
r0.2235349479775312 0
r0.1093008257709282 0
r0.03337108858183679 0
r-0.001100145548380307 0
r0.002516700985212316 0
r0.03542975583067198 0
r0.08551826107577191 0
#70
r0.1399349347373297 0
r0.1876467098285953 0
r0.2213806486510822 0
r0.2385979579562115 0
r0.2413540096207366 0
r0.2351596649608026 0
r0.2271787970855886 0
r0.2242289942213386 0
r0.2310693291208005 0
r0.2493612116715499 0
#71
r0.2775034353707562 0
r0.3113183033026713 0
r0.3453578814628472 0
r0.374457974379205 0
r0.3951246084692619 0
r0.4064007001640224 0
r0.4100098959412841 0
r0.4097700417743871 0
r0.4104595875199882 0
r0.4164580353373928 0
#72
r0.4305323324863414 0
r0.4530936812985693 0
r0.4821176403389981 0
r0.5137400355411218 0
r0.5433596323114037 0
r0.5669431803383188 0
r0.5821745382068034 0
r0.5891311098406444 0
r0.5902969996569085 0
r0.5899003084359381 0
#73
r0.5927453705546702 0
r0.6028512108928847 0
r0.6222674281530766 0
r0.6504008523964581 0
r0.68405853914703 0
r0.7182262661833949 0
r0.7474038382139078 0
r0.7671604058538534 0
r0.7754970076240747 0
r0.7736321512680006 0
#74
r0.7659559801749684 0
r0.7591002023713532 0
r0.7602962298351637 0
r0.7753871507310115 0
r0.8069706969907827 0
r0.8531493438685385 0
r0.9072458505208028 0
r0.958632081112065 0
r0.9945631904091522 0
r1.002667830106696 0
#75
r0.9735757020686026 0
r0.9031085863523586 0
r0.7935358799644419 0
r0.6535863844620068 0
r0.4971729250647354 0
r0.3410658620696368 0
r0.2019821027938253 0
r0.09368507612607317 0
r0.02468871136254871 0
r-0.002974675492002368 0
#76
r0.006304020791923692 0
r0.04300615488757982 0
r0.09470122915979898 0
r0.1486794491710698 0
r0.1944268036841595 0
r0.2254282377165085 0
r0.2399572277895622 0
r0.2407530485393661 0
r0.233742154450515 0
r0.2261679791260072 0
#77
r0.2246073857438169 0
r0.2333487854534398 0
r0.2534918303548916 0
r0.282933347779218 0
r0.317178802298155 0
r0.3507187511649095 0
r0.3785832611283454 0
r0.39766246451169 0
r0.4074608745743589 0
r0.4101134054855436 0
#78
r0.409689387488937 0
r0.410995926700871 0
r0.418216963295844 0
r0.433758750078124 0
r0.4576092466187967 0
r0.4873761813482848 0
r0.5189844922962616 0
r0.5478369363689334 0
r0.5701180391043575 0
r0.5838833834961783 0
#79
r0.5896334170432136 0
r0.5902086446832994 0
r0.5900254506038597 0
r0.5938511915151425 0
r0.6054463144358353 0
r0.6264452855207336 0
r0.6557938925366956 0
r0.6899200980228271 0
r0.7236237264401759 0
r0.7514755939979623 0
#80
r0.7693698585467894 0
r0.7758140475814077 0
r0.7725878175936366 0
r0.7645459953370296 0
r0.7585508006735422 0
r0.7617419257327771 0
r0.7795356896211711 0
r0.8138386064049962 0
r0.8619395446642778 0
r0.9164088298014178 0
#81
r0.9661107488752654 0
r0.9981782685893861 0
r1.000565698636381 0
r0.9646425625415243 0
r0.8872583096506982 0
r0.7718037016178753 0
r0.6280014238589061 0
r0.4704302368175427 0
r0.3160625645014336 0
r0.1813120559134036 0
#82
r0.07919573439937103 0
r0.01719005174443556 0
r-0.003792699095119923 0
r0.01087349065103768 0
r0.0510070438457428 0
r0.1039435098296543 0
r0.1571817739725874 0
r0.2007786669657824 0
r0.2289995702589616 0
r0.2409207322735166 0
#83
r0.2399283157925343 0
r0.2323103596863327 0
r0.2253326535716356 0
r0.225284630270159 0
r0.2359581981692872 0
r0.2578910010524225 0
r0.2885014625701097 0
r0.3230180440951547 0
r0.3559147185450114 0
r0.3824539379765319 0
#84
r0.3999316735413629 0
r0.4083144238142318 0
r0.4101281898935339 0
r0.4096591544625677 0
r0.4117037218362661 0
r0.4202168988345395 0
r0.4372257414702952 0
r0.4622960891340882 0
r0.4926880252296919 0
r0.5241491735174828 0
#85
r0.552123999288909 0
r0.573046316017863 0
r0.5853600422161352 0
r0.5899856607307148 0
r0.5900980004410338 0
r0.5902663194000819 0
r0.5951817224453952 0
r0.6083136844758161 0
r0.6308652077557856 0
r0.6613259011084268 0
#86
r0.695770283017473 0
r0.7288526259456947 0
r0.75525963262511 0
r0.7712478172572551 0
r0.7758503560891531 0
r0.7714025248828885 0
r0.7631931533914991 0
r0.7582651390566507 0
r0.7636087359656301 0
r0.7841618867642592 0
#87
r0.8211077862991464 0
r0.8709185886678672 0
r0.9254411662734653 0
r0.9730889661556169 0
r1.00094620566381 0
r0.9973675367515396 0
r0.9545218014419795 0
r0.8703167602049827 0
r0.7492586105752547 0
r0.6020215352236112 0
#88
r0.4437794381190406 0
r0.2916219052876562 0
r0.1615777252659715 0
r0.0658558937742847 0
r0.01086601874078756 0
r-0.003591534341419231 0
r0.01616879361603818 0
r0.0593694602067936 0
r0.1131882318723 0
r0.165401538665862 0
#89
r0.2066844372878592 0
r0.2320999015204611 0
r0.2415123210610589 0
r0.2389140101524772 0
r0.2308990402615219 0
r0.2246992138085482 0
r0.2262727428907101 0
r0.2388933394651351 0
r0.2625406915261525 0
r0.294181776903273 0
#90
r0.3288095852247089 0
r0.360926090411396 0
r0.3860620648878224 0
r0.4019376588540147 0
r0.408978073426818 0
r0.4100772319136309 0
r0.4097020002426032 0
r0.4125989960298615 0
r0.4224628888438278 0
r0.4409261400015461 0
#91
r0.467136985513338 0
r0.4980308197935857 0
r0.5292129334150982 0
r0.5562068861807362 0
r0.5757253106186808 0
r0.5866139685858941 0
r0.5902069751439659 0
r0.5899886370347608 0
r0.5906442953518557 0
r0.5967499413951844 0
#92
r0.6114538256082171 0
r0.6355144991923117 0
r0.6669739393452832 0
r0.7015819121531159 0
r0.7338890935617964 0
r0.7587425241090006 0
r0.7727960291572911 0
r0.7756237486541124 0
r0.7701066719996763 0
r0.7619331446830439 0
#93
r0.7582746816190721 0
r0.7659144022243031 0
r0.7892626759984791 0
r0.8287516385202647 0
r0.8800389992163433 0
r0.934282329771066 0
r0.9795047122320538 0
r1.002816416937883 0
r0.9930456884806681 0
r0.9432161604406504 0
#94
r0.8523187380158327 0
r0.7259627626851112 0
r0.5757259880308894 0
r0.4173031677244468 0
r0.2678154558576075 0
r0.1428274489537832 0
r0.05368322507207391 0
r0.005702334808038848 0
r-0.002412455809605391 0
r0.0221315852251493 0
#95
r0.06803060651486351 0
r0.122380669589294 0
r0.1733018785781155 0
r0.212130246704588 0
r0.234738054004736 0
r0.2417582325434161 0
r0.2377451153088886 0
r0.2295421161382489 0
r0.2242919529803834 0
r0.2275810165588038 0
#96
r0.2421473808014225 0
r0.2674210507960449 0
r0.2999476707549578 0
r0.3345276533389522 0
r0.3657348818577948 0
r0.3894019381420123 0
r0.4036879830582441 0
r0.4094700169673349 0
r0.409983935727159 0
r0.4098398736069591 0
#97
r0.4136961559836914 0
r0.4249579192070321 0
r0.4448508492283534 0
r0.4721134469219041 0
r0.5033819592171153 0
r0.5341554539531983 0
r0.5600733442462014 0
r0.578154395692409 0
r0.5876565055688222 0
r0.5903176653849285 0
#98
r0.5899042318105826 0
r0.5911797421295532 0
r0.5985669336562117 0
r0.6148649723005503 0
r0.6403784389324867 0
r0.6727138707170559 0
r0.7073278174054777 0
r0.7387105573192964 0
r0.7619131500045282 0
r0.7740189992678306 0
#99
r0.7751545171532661 0
r0.7687321426069236 0
r0.7608016442526653 0
r0.7586092124453356 0
r0.7686735645469314 0
r0.7948310849021109 0
r0.8367397183041178 0
r0.8892504316771013 0
r0.9428706602585677 0
r0.9852969888986935 0
