0;0;2
1;0;2
2;0;2
3;0;2
4;0;2
5;1;1
6;2;0
7;2;0
8;2;0
9;2;0
10;2;0
11;1;1
12;0;2
13;0;2
14;0;2
15;0;2
16;0;2
17;1;1
18;2;0
19;2;0
20;2;0
21;2;0
22;2;0
23;1;1
24;0;2
25;0;2
26;0;2
27;0;2
28;0;2
29;1;1
30;2;0
31;2;0
32;2;0
33;2;0
34;2;0
